<svg id="frame" xmlns="http://www.w3.org/2000/svg" width="65.031" height="65.031" viewBox="0 0 65.031 65.031">
  <path id="Vector" d="M54.192,27.1A27.1,27.1,0,1,1,27.1,0,27.1,27.1,0,0,1,54.192,27.1Z" transform="translate(5.419 5.419)" fill="none" stroke="#fff" stroke-linecap="round" stroke-linejoin="round" stroke-width="2"/>
  <path id="Vector-2" data-name="Vector" d="M0,9.538,9.565,0,19.13,9.538" transform="translate(22.95 26.392)" fill="none" stroke="#fff" stroke-linecap="round" stroke-linejoin="round" stroke-width="2"/>
  <path id="Vector-3" data-name="Vector" d="M0,0H65.031V65.031H0Z" transform="translate(65.031 65.031) rotate(180)" fill="none" opacity="0"/>
</svg>
